0.0319893182776
0.0362143225784
0.00100595340496
0.00100595340496
0.0649587962831
0.0418476616462
0.0102271929504
0.0362143225784
0.00804762723965
0.03856154719
0.0497465827303
0.101662974433
0.00804762723965
0.0714226917519
0.00100595340496
0.0045267903223
0.00100595340496
0.0207226401421
0.0444296087189
0.0338670979669
0.00100595340496
0.0409087718015
0.0291726487437
0.0219708298185
0.0679018548345
0.0326934856611
0.0467768333305
0.0045267903223
0.0714226917519
0.0418476616462
0.0608601809998
0.0338670979669
0.0432559964131
0.011568464157
0.00570040262808
0.0432559964131
0.0596865686941
0.00100595340496
0.0291726487437
0.0432559964131
0.03856154719
0.0362143225784
0.022130974909
0.0405476603228
0.0362143225784
0.0390309921123
0.0291726487437
0.0770560308196
0.0573393440825
0.00100595340496
