0.36036036036
0.324324324324
0.351351351351
0.342342342342
0.36036036036
0.36036036036
0.396396396396
0.333333333333
0.333333333333
0.36036036036
0.432432432432
0.612612612613
0.378378378378
0.315315315315
0.351351351351
0.396396396396
0.387387387387
0.378378378378
0.351351351351
0.387387387387
0.369369369369
0.369369369369
0.351351351351
0.378378378378
0.387387387387
0.351351351351
0.351351351351
0.333333333333
0.324324324324
0.36036036036
0.36036036036
0.387387387387
0.369369369369
0.351351351351
0.36036036036
0.342342342342
0.378378378378
0.342342342342
0.351351351351
0.378378378378
0.351351351351
0.351351351351
0.387387387387
0.333333333333
0.333333333333
0.378378378378
0.369369369369
0.324324324324
0.306306306306
0.351351351351
